final_report.utf8
…
What are the most popular genres?

myvars <- c("Genre", "Popularity")
top50genres <- top50[myvars]

topgenres <- top50genres %>%
  group_by(Genre) %>%
  summarize(Popularity = mean(Popularity))

topgenres <- topgenres[order(-topgenres$Popularity),]

topgenres

## # A tibble: 21 x 2
##    Genre            Popularity
##    <fct>                 <dbl>
##  1 dfw rap                92.5
##  2 electropop             92  
##  3 trap music             92  
##  4 escape room            91  
##  5 pop house              91  
##  6 reggaeton              91  
##  7 latin                  89.8
##  8 canadian hip hop       89.7
##  9 atl hip hop            89  
## 10 big room               89  
## # ... with 11 more rows

Who are the most popular artists?

myvars2 <- c("Artist.Name", "Popularity")
top50artists <- top50[myvars2]

topartists <- top50artists %>%
  group_by(Artist.Name) %>%
  summarize(Popularity = mean(Popularity))

topartists <- topartists[order(-topartists$Popularity),]

topartists

## # A tibble: 38 x 2
##    Artist.Name   Popularity
##    <fct>              <dbl>
##  1 Bad Bunny           93  
##  2 Post Malone         92.5
##  3 Anuel AA            92  
##  4 Billie Eilish       92  
##  5 Drake               92  
##  6 Lil Tecca           92  
##  7 Daddy Yankee        91  
##  8 Lizzo               91  
##  9 Lunay               91  
## 10 MEDUZA              91  
## # ... with 28 more rows
…
